module gitlab.com/linuxfreak003/ballistic

go 1.21.4

require (
	github.com/stretchr/testify v1.7.1
	github.com/xuri/excelize/v2 v2.6.1
	gonum.org/v1/gonum v0.12.0
)

require (
	github.com/davecgh/go-spew v1.1.1 // indirect
	github.com/mohae/deepcopy v0.0.0-20170929034955-c48cc78d4826 // indirect
	github.com/pmezard/go-difflib v1.0.0 // indirect
	github.com/richardlehane/mscfb v1.0.4 // indirect
	github.com/richardlehane/msoleps v1.0.3 // indirect
	github.com/xuri/efp v0.0.0-20220603152613-6918739fd470 // indirect
	github.com/xuri/nfp v0.0.0-20220409054826-5e722a1d9e22 // indirect
	golang.org/x/crypto v0.0.0-20220817201139-bc19a97f63c8 // indirect
	golang.org/x/net v0.0.0-20220812174116-3211cb980234 // indirect
	golang.org/x/text v0.3.7 // indirect
	gopkg.in/yaml.v3 v3.0.0 // indirect
)
